digraph {
    node [ shape="plaintext" ]

    Employee [ label=<
    <table border="0" cellborder="1" cellspacing="0">
        <tr><td colspan="2">Employee</td></tr>
        <tr><td>name</td><td>'Zamestnanec'</td></tr>
        <tr><td>salary</td><td>5000</td></tr>
        <tr><td>__proto__</td><td port="__p"></td></tr>
    </table>
    >]

    Object_p[ label=<
    <table border="0" cellborder="1" cellspacing="0">
        <tr><td colspan="2">Object.prototype</td></tr>
        <tr><td>__proto__</td><td>null</td></tr>
    </table>
    > ]

    cyril [ label=<
    <table border="0" cellborder="1" cellspacing="0">
        <tr><td colspan="2">cyril</td></tr>
        <tr><td>name</td><td>'Cyril'</td></tr>
        <tr><td>__proto__</td><td port="__p"></td></tr>
    </table>
    > ]

    david [ label=<
    <table border="0" cellborder="1" cellspacing="0">
        <tr><td colspan="2">david</td></tr>
        <tr><td>__proto__</td><td port="__p"></td></tr>
    </table>
    > ]

    cyril:__p -> Employee
    david:__p -> Employee
    Employee:__p -> Object_p
}